-	script	Punching Bag#2	-1,{
OnInit:
OnDummyKill:
 monster "auda_city1",187,259,"Punching Bag",1905,1,"Punching Bag#2::OnDummyKill";
 end;
}
-	script	Punching Bag#3	-1,{
OnInit:
 OnDummyKill2:
 monster "auda_city1",224,259,"Punching Bag",1905,1,"Punching Bag#3::OnDummyKill2";
 end;
}
-	script	Punching Bag#4	-1,{
OnInit:
 OnDummyKill3:
 monster "auda_city1",220,259,"Punching Bag",1905,1,"Punching Bag#4::OnDummyKill3";
 end;
}
-	script	Punching Bag#5	-1,{
OnInit:
 OnDummyKill4:
 monster "auda_city1",216,259,"Punching Bag",1905,1,"Punching Bag#5::OnDummyKill4";
 end;
}
-	script	Punching Bag#6	-1,{
OnInit:
 OnDummyKill5:
 monster "auda_city1",212,259,"Punching Bag",1905,1,"Punching Bag#6::OnDummyKill5";
 end;
}
-	script	Punching Bag#7	-1,{
OnInit:
 OnDummyKill6:
 monster "auda_city1",191,259,"Punching Bag",1905,1,"Punching Bag#7::OnDummyKill6";
 end;
}
-	script	Punching Bag#8	-1,{
OnInit:
 OnDummyKill7:
 monster "auda_city1",179,259,"Punching Bag",1905,1,"Punching Bag#8::OnDummyKill7";
 end;
 }
 -	script	Punching Bag#9	-1,{
OnInit:
 OnDummyKill9:
 monster "auda_city1",183,259,"Punching Bag",1905,1,"Punching Bag#9::OnDummyKill9";
 end;
 }

 -	script	Punching Bag#10	-1,{
OnInit:
 OnDummyKill9:
 monster "auda_city1",228,259,"Punching Bag",1905,1,"Punching Bag#10::OnDummyKill9";
 end;
 }

  -	script	Punching Bag#11	-1,{
OnInit:
 OnDummyKill9:
 monster "auda_city1",232,259,"Punching Bag",1905,1,"Punching Bag#11::OnDummyKill9";
 end;
 }

  -	script	Punching Bag#12	-1,{
OnInit:
 OnDummyKill9:
 monster "auda_city1",175,259,"Punching Bag",1905,1,"Punching Bag#12::OnDummyKill9";
 end;
 }

 -	script	Punching Bag#13	-1,{
OnInit:
 OnDummyKill9:
 monster "auda_city1",171,259,"Punching Bag",1905,1,"Punching Bag#13::OnDummyKill9";
 end;
 }