^C:\USERS\PROMEISTER\AUDACITYRO-REBIRTH\SRC\PLUGINS\CHARMS_1.1.C
C:\USERS\PROMEISTER\AUDACITYRO-REBIRTH\VCPROJ-14\CHARMS_1.1\DEBUG\VC140.PDB
C:\USERS\PROMEISTER\AUDACITYRO-REBIRTH\VCPROJ-14\CHARMS_1.1\DEBUG\CHARMS_1.1.OBJ
