^C:\Users\Promeister\audacityro-rebirth\vcproj-14\mapsit.vcxproj
C:\Users\Promeister\audacityro-rebirth\vcproj-14\mapsit\Debug\mapsit.lib
C:\Users\Promeister\audacityro-rebirth\vcproj-14\mapsit\Debug\mapsit.exp
