-	script	restric_nonbaby	-1,{
	OnPCLoadMapEvent:
                set @eac, eaclass();
		if( strcharinfo(3) == "prtg_cas01" && !@eac&EAJL_BABY ){
			dispbottom "You are not allowed here.";
			sleep2 1000;
			warp "SavePoint",0,0;
		}
}
prtg_cas01	mapflag	loadevent
